{
  "project_info": {
    "project_number": "954263798095",
    "firebase_url": "https://lisplayandroid-158907.firebaseio.com",
    "project_id": "lisplayandroid-158907",
    "storage_bucket": "lisplayandroid-158907.appspot.com"
  },
  "client": [
    {
      "client_info": {
        "mobilesdk_app_id": "1:954263798095:android:bceb1dfaea239618",
        "android_client_info": {
          "package_name": "com.lisplay.debug"
        }
      },
      "oauth_client": [
        {
          "client_id": "954263798095-5d7sf79atfgsaspktmpmg9aph09qcdo6.apps.googleusercontent.com",
          "client_type": 1,
          "android_info": {
            "package_name": "com.lisplay.debug",
            "certificate_hash": "935ed9db19e1792550379478919cb89f3cec50bd"
          }
        },
        {
          "client_id": "954263798095-20mgqklj5jdr35g04oh1pnc62uoeorqs.apps.googleusercontent.com",
          "client_type": 3
        }
      ],
      "api_key": [
        {
          "current_key": "AIzaSyA5a5tebDVmX-AQzVYgIINlIJRgueb6ruY"
        }
      ],
      "services": {
        "analytics_service": {
          "status": 1
        },
        "appinvite_service": {
          "status": 2,
          "other_platform_oauth_client": [
            {
              "client_id": "954263798095-20mgqklj5jdr35g04oh1pnc62uoeorqs.apps.googleusercontent.com",
              "client_type": 3
            }
          ]
        },
        "ads_service": {
          "status": 2
        }
      }
    },
    {
      "client_info": {
        "mobilesdk_app_id": "1:954263798095:android:111474703416149d",
        "android_client_info": {
          "package_name": "com.lisplay"
        }
      },
      "oauth_client": [
        {
          "client_id": "954263798095-lnnklov8q68bioracd0ermtfpqierpue.apps.googleusercontent.com",
          "client_type": 1,
          "android_info": {
            "package_name": "com.lisplay",
            "certificate_hash": "17d030a5143ce7fd9a7d059fabef60e7577d001c"
          }
        },
        {
          "client_id": "954263798095-20mgqklj5jdr35g04oh1pnc62uoeorqs.apps.googleusercontent.com",
          "client_type": 3
        }
      ],
      "api_key": [
        {
          "current_key": "AIzaSyA5a5tebDVmX-AQzVYgIINlIJRgueb6ruY"
        }
      ],
      "services": {
        "analytics_service": {
          "status": 1
        },
        "appinvite_service": {
          "status": 2,
          "other_platform_oauth_client": [
            {
              "client_id": "954263798095-20mgqklj5jdr35g04oh1pnc62uoeorqs.apps.googleusercontent.com",
              "client_type": 3
            }
          ]
        },
        "ads_service": {
          "status": 2
        }
      }
    }
  ],
  "configuration_version": "1"
}